{
  "key": "${addon.key}",
  "baseUrl": "${addon.base-url}",
  "name": "Atlassian-connect Sample App",
  "authentication": {
    "type": "jwt"
  },
  "lifecycle": {
    "installed": "/installed",
    "uninstalled": "/uninstalled",
    "enabled": "/enabled",
    "disabled": "/disabled"
  },
  "scopes": [
    "READ",
    "WRITE",
    "ACT_AS_USER"
  ],
  "apiMigrations": {
    "gdpr": true
  },
  "modules": {
  }
}
